1,"БЛУЗКИ, РУБАШКИ"
2,"БЛУЗКИ, РУБАШКИ+"
3,БРЮКИ
4,БРЮКИ+
5,Блуза
6,Брюки
7,Верхняя одежда
8,Вечернее платье
9,Демисезонные
10,Демисезонные+
11,Женские джинсы
12,Женские кардиганы
13,"Женские куртки, пальто"
14,Женские платья
15,Женские спортивные костюмы
16,"Женские топы, рубашки, блузки"
17,Женские шорты
18,Женские юбки
19,Жилеты
20,Зимние
21,Зимние+
22,КОСТЮМЫ
23,КОСТЮМЫ+
24,КОФТЫ
25,КОФТЫ+
26,КУПАЛЬНИКИ
27,Кардиганы
28,Комбинезон
29,Комбинезоны
30,Костюм
31,Костюмы
32,Кофта
33,"Кофты, худи"
34,Куртка
35,ЛОСИНЫ
36,Майки
37,Майки+
38,Нижнее белье
39,ПИДЖАКИ+
40,"ПИДЖАКИ, ЖИЛЕТЫ"
41,ПЛАТЬЯ
42,ПЛАТЬЯ+
43,ПЛАЩИ
44,Пиджак
45,Платье
46,Платья
47,Рубашка
48,Рубашки
49,"Рубашки, блузки"
50,САРАФАНЫ
51,САРАФАНЫ +
52,"Свитера, туники"
53,Свитшот
54,Свитшоты
55,Спортивные костюмы
56,Спортивный костюм
57,ТУНИКИ
58,ТУНИКИ+
59,Топ
60,Утепленные
61,Футболка
62,Футболки
63,"Футболки, майки"
64,ШОРТЫ
65,ШУБЫ ИЗ ЭКО МЕХА
66,Шорты
67,ЮБКИ
68,ЮБКИ+
69,Юбка
70,Юбки
