1,v-образный вырез,1,v-образный вырез
2,Небольшое декольте,2,Небольшое декольте
3,без воротника,3,без воротника
4,воротник стойка,4,воротник стойка
5,вырез-лодочка,5,вырез-лодочка
6,высокий воротник,6,высокий воротник
7,глубокое декольте,7,глубокое декольте
8,с воротником,8,с воротником
9,с капюшоном,9,с капюшоном
