1,длинный,1,длинный
2,короткий,2,короткий
3,до середины бедра,3,до середины бедра
4,выше колена,4,выше колена
5,короткая куртка,5,короткая куртка
6,макси,6,макси
7,миди,7,миди
8,ниже колен,8,ниже колен
9,по колено,9,по колено
